<?xml version="1.0" encoding="UTF-8" standalone="no"?>
<!DOCTYPE svg PUBLIC "-//W3C//DTD SVG 1.1//EN" "http://www.w3.org/Graphics/SVG/1.1/DTD/svg11.dtd">
<!-- Created with Vectornator (http://vectornator.io/) -->
<svg height="100%" stroke-miterlimit="10"
     style="fill-rule:nonzero;clip-rule:evenodd;stroke-linecap:round;stroke-linejoin:round;" version="1.1"
     viewBox="0 0 180 180" width="100%" xml:space="preserve" xmlns="http://www.w3.org/2000/svg"
     xmlns:vectornator="http://vectornator.io" xmlns:xlink="http://www.w3.org/1999/xlink">
<defs/>
    <g id="Слой-2" vectornator:layerName="Слой 2">
<path d="M1.56326 90C1.56326 41.1577 41.1577 1.56326 90 1.56326C138.842 1.56326 178.437 41.1577 178.437 90C178.437 138.842 138.842 178.437 90 178.437C41.1577 178.437 1.56326 138.842 1.56326 90Z"
      fill="#b0cecc" fill-rule="nonzero" opacity="1" stroke="none" vectornator:layerName="Овал 1"/>
</g>
    <g id="Слой-1" vectornator:layerName="Слой 1">
<path d="M79.213 20.9866C78.5149 21.1611 76.3577 23.0989 72.6928 26.7639C69.0279 30.4289 67.1629 32.586 67.163 33.2841C67.163 33.9822 67.7571 34.6494 68.9788 35.3475C70.2004 36.0456 72.2114 36.4204 75.0038 36.4204C77.7961 36.4204 79.6608 36.2743 80.5335 35.9252C80.9698 35.7507 81.4178 35.522 81.8541 35.3475C80.7197 40.4086 79.5221 45.4727 78.3877 50.5337C76.1189 60.656 74.7115 68.1789 74.0134 73.0655C73.3153 77.9521 72.4193 80.4841 71.3723 80.6586C70.3251 80.8332 68.9813 79.8642 67.4106 77.7699C65.8399 75.6757 64.1308 74.3414 62.211 73.6432C60.2913 72.9452 58.8013 73.7585 57.7542 76.2018C56.707 78.6451 55.738 81.9999 54.8655 86.1884C53.9929 90.3769 53.3988 92.534 53.0497 92.7086C52.7007 92.8831 51.951 92.6638 50.9038 91.9658C49.8567 91.2677 49.0433 90.8928 48.3453 90.8928C47.6472 90.8928 47.1261 91.1121 46.7771 91.6357C46.4281 92.1592 46.355 92.6802 46.5295 93.2038C46.7041 93.7274 47.746 94.477 49.6658 95.3497C51.5856 96.2223 52.3989 97.3374 52.2244 98.7336C52.0499 100.13 50.9348 100.797 48.8405 100.797C46.7462 100.797 45.6311 101.026 45.4566 101.375C45.2821 101.724 45.2821 102.318 45.4566 103.19C45.6311 104.063 46.6731 104.584 48.5929 104.759C49.5528 104.846 50.5217 104.919 51.4816 105.006C51.3943 105.704 51.3212 106.454 51.234 107.152C51.0594 108.548 50.2367 109.435 48.8405 109.958C47.4443 110.482 46.8503 111.305 47.0247 112.352C47.112 112.875 47.1851 113.396 47.2723 113.92C47.7959 113.833 48.3169 113.759 48.8405 113.672C49.364 113.585 49.885 113.512 50.4086 113.425C50.3214 115.693 50.2483 117.924 50.161 120.192C49.9865 124.73 50.1327 129.127 50.6562 133.315C50.918 135.41 51.2198 137.494 51.4816 139.588C50.3472 139.064 49.2321 138.543 48.0977 138.02C45.8289 136.973 43.6622 135.337 41.7426 133.068C39.8228 130.799 38.2598 127.819 37.0381 124.154C35.8165 120.489 35.0031 116.394 34.4796 111.856C33.956 107.319 33.435 104.485 32.9114 103.438C32.3879 102.391 31.6382 101.651 30.7655 101.127C29.8929 100.603 28.8509 100.375 27.6292 100.549C26.4076 100.724 25.3656 101.547 24.493 102.943C23.6204 104.339 23.1724 106.871 23.1724 110.536C23.1724 114.201 23.6935 118.223 24.7406 122.586C25.7877 126.949 27.1316 130.523 28.7022 133.315C30.2729 136.108 32.2108 138.64 34.4796 140.908C36.7483 143.177 39.8014 145.188 43.6408 146.933C47.4803 148.679 50.2316 149.721 51.9768 150.07C53.722 150.419 55.0657 150.419 55.9384 150.07C56.811 149.721 56.7379 146.293 55.6908 139.836C54.6437 133.378 54.1226 127.272 54.1227 121.513C54.1227 115.754 54.2688 112.555 54.6179 111.856C54.9669 111.158 55.9359 110.336 57.5066 109.463C59.0772 108.59 59.6713 107.695 59.3223 106.822C58.9733 105.949 58.4523 105.501 57.7542 105.501C57.0561 105.501 56.4619 105.803 55.9384 106.327C55.6766 106.588 55.3749 106.89 55.1131 107.152C55.0258 106.89 54.9527 106.588 54.8655 106.327C54.6909 105.803 55.2851 105.209 56.6812 104.511C58.0774 103.813 58.5983 102.99 58.2494 102.117C57.9003 101.245 57.3793 100.797 56.6812 100.797C56.3322 100.797 56.0398 100.797 55.6908 100.797C55.6908 100.448 55.6908 100.156 55.6908 99.8065C55.6908 99.4575 55.6908 99.0826 55.6908 98.7336C56.2144 98.8208 56.7353 98.894 57.259 98.9812C58.3061 99.1557 58.9733 99.0826 59.3223 98.7336C59.6713 98.3845 59.7444 97.8635 59.5699 97.1654C59.3954 96.4673 58.8744 95.9463 58.0018 95.5973C57.1292 95.2482 56.6812 94.7272 56.6812 94.0291C56.6812 93.3311 57.4309 90.3511 58.8271 85.1155C59.5252 82.4977 60.1924 79.8925 60.8904 77.2747C61.414 77.5365 61.935 77.7558 62.4586 78.0175C63.5057 78.5411 64.6209 79.8118 65.8425 81.7316C67.0641 83.6513 71.388 84.6203 78.7178 84.6203C86.0477 84.6203 90.7368 83.4226 92.8311 81.1538C93.8782 80.0194 94.9203 78.9044 95.9674 77.7699C96.6655 80.2132 97.3327 82.6722 98.0307 85.1155C99.4269 90.0021 100.177 92.8358 100.177 93.5339C100.177 94.232 99.6556 94.8262 98.6085 95.3497C97.5614 95.8732 97.0404 96.5404 97.0403 97.413C97.0403 98.2856 97.4883 98.8066 98.3609 98.9812C99.2335 99.1557 99.9008 99.0826 100.424 98.7336C100.686 98.5591 100.905 98.413 101.167 98.2384C101.167 98.6747 101.167 99.1227 101.167 99.5589C101.167 99.9952 101.167 100.361 101.167 100.797C100.731 100.797 100.365 100.797 99.929 100.797C99.0564 100.797 98.3796 101.245 98.0307 102.117C97.6817 102.99 97.9105 103.74 98.6085 104.263C99.3066 104.787 100.047 105.006 100.919 105.006C101.356 105.006 101.804 105.006 102.24 105.006C102.24 105.355 102.24 105.73 102.24 106.079C102.24 106.428 102.24 106.803 102.24 107.152C101.455 106.89 100.714 106.588 99.929 106.327C99.1437 106.065 98.3209 105.763 97.5355 105.501C97.4483 106.025 97.3751 106.628 97.2879 107.152C97.1134 108.199 98.0093 109.086 99.929 109.958C101.849 110.831 102.735 114.405 102.735 120.688C102.735 126.97 102.141 133.378 100.919 139.836C99.6978 146.293 99.4054 149.721 99.929 150.07C100.453 150.419 102.016 150.492 104.633 150.317C107.251 150.143 108.586 149.622 108.76 148.749C108.935 147.877 108.862 147.282 108.513 146.933C108.164 146.584 107.195 146.356 105.624 146.356C104.839 146.356 104.098 146.356 103.313 146.356C103.313 146.181 103.313 146.035 103.313 145.86C103.313 145.511 103.834 142.906 104.881 138.02C105.928 133.133 106.449 127.767 106.449 122.008C106.449 119.129 106.449 116.304 106.449 113.425C106.886 113.512 107.333 113.585 107.77 113.672C108.642 113.847 109.237 113.774 109.586 113.425C109.935 113.076 110.007 112.555 109.833 111.856C109.659 111.158 109.064 110.637 108.017 110.288C106.97 109.939 106.376 108.97 106.202 107.4C106.114 106.614 106.041 105.792 105.954 105.006C106.739 104.919 107.48 104.846 108.265 104.759C109.836 104.584 110.731 103.99 110.906 102.943C110.993 102.419 111.066 101.898 111.154 101.375C110.194 101.287 109.225 101.214 108.265 101.127C106.345 100.953 105.23 100.13 104.881 98.7336C104.532 97.3374 105.126 96.2954 106.697 95.5973C108.268 94.8992 109.236 94.0764 109.586 93.2038C109.935 92.3312 109.934 91.7371 109.586 91.3881C109.236 91.039 108.341 91.1121 106.944 91.6357C105.548 92.1592 104.579 92.3879 104.056 92.2134C103.532 92.0389 102.865 89.9549 101.992 85.9408C101.12 81.9268 100.151 78.6451 99.1037 76.2018C98.0566 73.7585 97.1607 72.5703 96.4626 72.5703C95.7645 72.5703 94.2013 73.9872 91.7582 76.7795C89.3149 79.5719 86.1887 80.8332 82.3493 80.6586C80.4296 80.5714 78.4916 80.4982 76.5719 80.411C77.27 76.3098 78.0198 72.2147 78.7178 68.1135C80.114 59.911 81.7501 51.867 83.6698 44.0135C85.5896 36.1601 86.2568 31.9188 85.7332 31.2208C85.2096 30.5227 83.8753 30.5958 81.6065 31.4684C79.3377 32.341 77.098 32.7158 75.0038 32.5413C73.9566 32.4541 72.9146 32.2984 71.8675 32.2112C73.1764 30.9895 74.5202 29.8013 75.8291 28.5797C78.4469 26.1364 80.6042 24.9482 82.3493 24.9482C84.0945 24.9482 85.8036 25.3136 87.5489 26.1862C89.2941 27.0588 91.1589 28.5487 93.0787 30.643C94.9984 32.7373 96.8633 33.6331 98.6085 33.2841C100.354 32.9351 102.813 32.935 105.954 33.2841C109.095 33.6332 111.472 32.6642 113.217 30.3954C114.962 28.1267 116.754 26.6367 118.499 25.9386C120.244 25.2405 122.776 25.9902 126.092 28.0845C127.75 29.1316 129.386 30.1737 131.044 31.2208C129.997 31.308 128.955 31.3811 127.908 31.4684C125.814 31.6429 123.876 31.4967 122.131 30.9732C120.385 30.4496 119.344 30.6689 118.994 31.716C118.645 32.7631 119.468 36.9313 121.388 44.2611C123.308 51.591 125.465 62.3132 127.908 76.4494C130.351 90.5856 131.988 102.057 132.86 110.784C133.733 119.51 134.254 128.148 134.428 136.699C134.603 145.251 134.978 149.721 135.501 150.07C136.025 150.419 137.213 150.565 139.133 150.565C141.052 150.565 142.323 150.419 142.847 150.07C143.37 149.721 143.589 149.044 143.59 148.171C143.59 147.299 142.776 146.778 141.031 146.603C139.286 146.429 138.317 142.562 138.142 134.883C137.968 127.205 137.291 118.265 136.244 108.142C135.197 98.0202 133.634 86.9232 131.54 74.8813C129.445 62.8393 127.59 53.461 125.845 46.6546C124.099 39.8483 123.204 36.2012 123.204 35.6776C123.204 35.4158 123.204 35.1141 123.204 34.8523C124.949 34.9395 126.658 35.0126 128.403 35.0999C131.894 35.2744 134.133 35.2012 135.006 34.8523C135.879 34.5032 136.4 33.9822 136.574 33.2841C136.749 32.586 135.926 31.2422 134.181 29.3225C132.435 27.4028 129.977 25.6204 126.835 23.8752C123.694 22.13 121.235 21.3072 119.49 21.4818C117.744 21.6563 115.962 22.5521 114.042 24.1228C112.123 25.6935 110.852 27.0373 110.328 28.0845C109.805 29.1316 107.502 29.6527 103.313 29.6526C99.1244 29.6526 95.7697 28.455 93.3263 26.1862C90.883 23.9174 88.1317 22.4275 84.9904 21.7294C81.849 21.0313 79.9112 20.812 79.213 20.9866ZM112.722 46.9022C112.024 46.9022 111.43 47.4232 110.906 48.4704C110.382 49.5175 110.383 50.3404 110.906 50.8639C111.43 51.3874 112.024 51.6067 112.722 51.6067C113.42 51.6067 114.014 51.1587 114.538 50.2861C115.061 49.4135 115.061 48.6733 114.538 47.9752C114.014 47.2771 113.42 46.9022 112.722 46.9022ZM92.8311 47.3974C91.784 47.0484 90.9612 47.4232 90.4376 48.4704C89.9141 49.5175 89.8411 50.3404 90.19 50.8639C90.5391 51.3874 91.133 51.6067 92.0058 51.6067C92.8784 51.6067 93.5552 51.0126 93.904 49.7909C94.2531 48.5693 93.878 47.7465 92.8311 47.3974ZM102.24 52.6796C101.193 52.6796 100.297 52.8989 99.5989 53.4224C98.9008 53.946 98.5353 54.5401 98.3609 55.2382C98.1864 55.9362 98.5518 56.6129 99.5989 57.1364C100.646 57.66 101.167 58.629 101.167 60.0251C101.167 61.4213 101.469 62.1615 101.992 62.3361C102.254 62.4233 102.474 62.4964 102.735 62.5837C102.822 61.7983 102.978 61.0581 103.065 60.2727C103.24 58.702 103.532 57.8793 104.056 57.8793C104.579 57.8793 105.1 57.3582 105.624 56.3111C106.147 55.264 106.001 54.368 105.129 53.67C104.256 52.9719 103.287 52.6796 102.24 52.6796ZM70.0517 97.1654C69.1791 97.1654 68.658 97.6865 68.4836 98.7336C68.3091 99.7807 68.6839 100.448 69.5565 100.797C70.4291 101.146 71.0965 100.927 71.6199 100.054C72.1434 99.1815 72.2164 98.4318 71.8675 97.9082C71.5184 97.3847 70.9245 97.1655 70.0517 97.1654ZM85.9808 97.413C84.9337 97.2385 84.2665 97.6134 83.9174 98.486C83.5684 99.3586 83.9434 100.026 84.9904 100.549C85.5139 100.811 86.8792 100.17 87.0537 99.5589C87.2282 98.9481 86.5045 97.5003 85.9808 97.413ZM79.8919 103.277C78.4957 102.928 76.5023 102.986 75.9788 103.684C75.717 104.033 75.5976 104.824 75.7721 104.911C76.1212 105.086 77.7559 104.643 77.7561 106.039C77.7561 106.398 77.9077 107.146 77.6373 108.767C77.3858 110.275 76.9799 110.203 77.1496 110.288C77.3476 110.387 78.8745 110.347 78.8745 110.347C78.8745 110.347 78.8008 110.638 78.5718 108.694C78.4356 107.538 78.2795 106.934 78.6276 105.987C79.0304 104.891 80.343 104.803 80.343 104.803C80.343 104.803 80.2416 103.365 79.8919 103.277ZM27.8769 103.933C28.2259 104.195 28.6008 104.497 28.9498 104.759C29.6479 105.282 30.3151 108.262 31.0131 113.672C31.7112 119.082 32.6802 123.397 33.9018 126.713C35.1235 130.029 36.8421 132.935 38.9364 135.379C41.0307 137.822 42.7399 139.458 44.136 140.331C45.5322 141.203 47.1683 141.953 49.0881 142.477C51.0078 143 52.0498 143.667 52.2244 144.54C52.3116 144.976 52.3848 145.424 52.472 145.86C51.3376 145.599 50.2225 145.297 49.0881 145.035C46.8193 144.512 44.6621 143.698 42.5679 142.477C40.4736 141.255 38.0147 138.869 35.2224 135.379C32.43 131.888 30.419 127.793 29.1974 123.081C27.9757 118.369 27.4547 113.972 27.6292 109.958C27.7165 107.951 27.7896 105.94 27.8769 103.933Z"
      fill="#00625c" fill-rule="nonzero" opacity="1" stroke="none" vectornator:layerName="Кривая 1"/>
</g>
</svg>
